fft_bca/trace.vcd
$date
     Mar 18, 2021       05:55:50
$end

$version
 SystemC 2.3.3-Accellera --- Feb  9 2021 03:11:34
$end

$timescale
     1 ns
$end

$scope module SystemC $end
$var wire    1  aaaaa  clk       $end
$var wire    1  aaaab  src_2_fft_valid       $end
$var wire    1  aaaac  fft_2_src_req       $end
$var wire    1  aaaad  fft_2_sink_valid       $end
$var wire    1  aaaae  sink_2_fft_req       $end
$var real    1  aaaaf  out_imag       $end
$var real    1  aaaag  out_real       $end
$var real    1  aaaah  in_imag       $end
$var real    1  aaaai  in_real       $end
$upscope $end
$enddefinitions  $end

$comment
All initial values are dumped below at time 0 sec = 0 timescale units.
$end

$dumpvars
0aaaaa
0aaaab
1aaaac
0aaaad
0aaaae
r0 aaaaf
r0 aaaag
r0 aaaah
r0 aaaai
$end

#10
1aaaaa
1aaaab
1aaaae
r2011 aaaah
r2011 aaaai

#15
0aaaaa

#20
1aaaaa
0aaaab

#25
0aaaaa

#30
1aaaaa
1aaaab

#35
0aaaaa

#40
1aaaaa
0aaaab

#45
0aaaaa

#50
1aaaaa
1aaaab

#55
0aaaaa

#60
1aaaaa
0aaaab

#65
0aaaaa

#70
1aaaaa
1aaaab

#75
0aaaaa

#80
1aaaaa
0aaaab

#85
0aaaaa

#90
1aaaaa
1aaaab

#95
0aaaaa

#100
1aaaaa
0aaaab

#105
0aaaaa

#110
1aaaaa
1aaaab

#115
0aaaaa

#120
1aaaaa
0aaaab

#125
0aaaaa

#130
1aaaaa
1aaaab

#135
0aaaaa

#140
1aaaaa
0aaaab

#145
0aaaaa

#150
1aaaaa
1aaaab

#155
0aaaaa

#160
1aaaaa
0aaaab

#165
0aaaaa

#170
1aaaaa
1aaaab
0aaaac
1aaaad
r16088 aaaaf
r16088 aaaag
r1 aaaah
r1 aaaai

#175
0aaaaa

#180
1aaaaa
0aaaad

#185
0aaaaa

#190
1aaaaa
1aaaad
r0 aaaaf
r0 aaaag

#195
0aaaaa

#200
1aaaaa
0aaaad

#205
0aaaaa

#210
1aaaaa
1aaaad

#215
0aaaaa

#220
1aaaaa
0aaaad

#225
0aaaaa

#230
1aaaaa
1aaaad

#235
0aaaaa

#240
1aaaaa
0aaaad

#245
0aaaaa

#250
1aaaaa
1aaaad

#255
0aaaaa

#260
1aaaaa
0aaaad

#265
0aaaaa

#270
1aaaaa
1aaaad

#275
0aaaaa

#280
1aaaaa
0aaaad

#285
0aaaaa

#290
1aaaaa
1aaaad

#295
0aaaaa

#300
1aaaaa
0aaaad

#305
0aaaaa

#310
1aaaaa
1aaaad

#315
0aaaaa

#320
1aaaaa
1aaaac
0aaaad

#325
0aaaaa

#330
1aaaaa
0aaaab

#335
0aaaaa

#340
1aaaaa
1aaaab
r0 aaaah
r0 aaaai

#345
0aaaaa

#350
1aaaaa
0aaaab

#355
0aaaaa

#360
1aaaaa
1aaaab

#365
0aaaaa

#370
1aaaaa
0aaaab

#375
0aaaaa

#380
1aaaaa
1aaaab

#385
0aaaaa

#390
1aaaaa
0aaaab

#395
0aaaaa

#400
1aaaaa
1aaaab

#405
0aaaaa

#410
1aaaaa
0aaaab

#415
0aaaaa

#420
1aaaaa
1aaaab

#425
0aaaaa

#430
1aaaaa
0aaaab

#435
0aaaaa

#440
1aaaaa
1aaaab

#445
0aaaaa

#450
1aaaaa
0aaaab

#455
0aaaaa

#460
1aaaaa
1aaaab

#465
0aaaaa

#470
1aaaaa
0aaaab

#475
0aaaaa

#480
1aaaaa
1aaaab
0aaaac
1aaaad
r1 aaaaf
r1 aaaag
r456 aaaah

#485
0aaaaa

#490
1aaaaa
0aaaad

#495
0aaaaa

#500
1aaaaa
1aaaad

#505
0aaaaa

#510
1aaaaa
0aaaad

#515
0aaaaa

#520
1aaaaa
1aaaad

#525
0aaaaa

#530
1aaaaa
0aaaad

#535
0aaaaa

#540
1aaaaa
1aaaad

#545
0aaaaa

#550
1aaaaa
0aaaad

#555
0aaaaa

#560
1aaaaa
1aaaad

#565
0aaaaa

#570
1aaaaa
0aaaad

#575
0aaaaa

#580
1aaaaa
1aaaad

#585
0aaaaa

#590
1aaaaa
0aaaad

#595
0aaaaa

#600
1aaaaa
1aaaad

#605
0aaaaa

#610
1aaaaa
0aaaad

#615
0aaaaa

#620
1aaaaa
1aaaad

#625
0aaaaa

#630
1aaaaa
1aaaac
0aaaad

#635
0aaaaa

#640
1aaaaa
0aaaab

#645
0aaaaa

#650
1aaaaa
1aaaab
r234 aaaah
r120 aaaai

#655
0aaaaa

#660
1aaaaa
0aaaab

#665
0aaaaa

#670
1aaaaa
1aaaab
r120 aaaah
r234 aaaai

#675
0aaaaa

#680
1aaaaa
0aaaab

#685
0aaaaa

#690
1aaaaa
1aaaab
r0 aaaah
r120 aaaai

#695
0aaaaa

#700
1aaaaa
0aaaab

#705
0aaaaa

#710
1aaaaa
1aaaab
r-120 aaaah
r0 aaaai

#715
0aaaaa

#720
1aaaaa
0aaaab

#725
0aaaaa

#730
1aaaaa
1aaaab
r-234 aaaah
r-120 aaaai

#735
0aaaaa

#740
1aaaaa
0aaaab

#745
0aaaaa

#750
1aaaaa
1aaaab
r-456 aaaah
r-234 aaaai

#755
0aaaaa

#760
1aaaaa
0aaaab

#765
0aaaaa

#770
1aaaaa
1aaaab
r-768 aaaah
r-120 aaaai

#775
0aaaaa

#780
1aaaaa
0aaaab

#785
0aaaaa

#790
1aaaaa
1aaaab
0aaaac
1aaaad
r-768 aaaaf
r0 aaaag
r29 aaaah
r123 aaaai

#795
0aaaaa

#800
1aaaaa
0aaaad

#805
0aaaaa

#810
1aaaaa
1aaaad
r-443.5433044433594 aaaaf
r1449.984008789062 aaaag

#815
0aaaaa

#820
1aaaaa
0aaaad

#825
0aaaaa

#830
1aaaaa
1aaaad
r672 aaaaf
r768 aaaag

#835
0aaaaa

#840
1aaaaa
0aaaad

#845
0aaaaa

#850
1aaaaa
1aaaad
r916.7207641601562 aaaaf
r297.9839782714844 aaaag

#855
0aaaaa

#860
1aaaaa
0aaaad

#865
0aaaaa

#870
1aaaaa
1aaaad
r768 aaaaf
r0 aaaag

#875
0aaaaa

#880
1aaaaa
0aaaad

#885
0aaaaa

#890
1aaaaa
1aaaad
r659.5432739257812 aaaaf
r-297.9839782714844 aaaag

#895
0aaaaa

#900
1aaaaa
0aaaad

#905
0aaaaa

#910
1aaaaa
1aaaad
r672 aaaaf
r-768 aaaag

#915
0aaaaa

#920
1aaaaa
0aaaad

#925
0aaaaa

#930
1aaaaa
1aaaad
r1171.279174804688 aaaaf
r-1449.984008789062 aaaag

#935
0aaaaa

#940
1aaaaa
1aaaac
0aaaad

#945
0aaaaa

#950
1aaaaa
0aaaab

#955
0aaaaa

#960
1aaaaa
1aaaab
r34 aaaah
r34 aaaai

#965
0aaaaa

#970
1aaaaa
0aaaab

#975
0aaaaa

#980
1aaaaa
1aaaab
r85 aaaah
r-23 aaaai

#985
0aaaaa

#990
1aaaaa
0aaaab

#995
0aaaaa

#1000
1aaaaa
1aaaab
r206 aaaah
r12 aaaai

#1005
0aaaaa

#1010
1aaaaa
0aaaab

#1015
0aaaaa

#1020
1aaaaa
1aaaab
r336 aaaah
r45 aaaai

#1025
0aaaaa

#1030
1aaaaa
0aaaab

#1035
0aaaaa

#1040
1aaaaa
1aaaab
r593 aaaah
r0 aaaai

#1045
0aaaaa

#1050
1aaaaa
0aaaab

#1055
0aaaaa

#1060
1aaaaa
1aaaab
r823 aaaah
r67 aaaai

#1065
0aaaaa

#1070
1aaaaa
0aaaab

#1075
0aaaaa

#1080
1aaaaa
1aaaab
r422 aaaah
r134 aaaai

#1085
0aaaaa

#1090
1aaaaa
0aaaab

#1095
0aaaaa

#1100
1aaaaa
0aaaac
1aaaad
r2528 aaaaf
r392 aaaag

#1105
0aaaaa

#1110
1aaaaa
0aaaad

#1115
0aaaaa

#1120
1aaaaa
1aaaad
r-397.3122253417969 aaaaf
r-1097.699096679688 aaaag

#1125
0aaaaa

#1130
1aaaaa
0aaaad

#1135
0aaaaa

#1140
1aaaaa
1aaaad
r-431 aaaaf
r123 aaaag

#1145
0aaaaa

#1150
1aaaaa
0aaaad

#1155
0aaaaa

#1160
1aaaaa
1aaaad
r-92.23697662353516 aaaaf
r157.68359375 aaaag

#1165
0aaaaa

#1170
1aaaaa
0aaaad

#1175
0aaaaa

#1180
1aaaaa
1aaaad
r18 aaaaf
r32 aaaag

#1185
0aaaaa

#1190
1aaaaa
0aaaad

#1195
0aaaaa

#1200
1aaaaa
1aaaad
r-36.68777084350586 aaaaf
r-222.3009033203125 aaaag

#1205
0aaaaa

#1210
1aaaaa
0aaaad

#1215
0aaaaa

#1220
1aaaaa
1aaaad
r-655 aaaaf
r125 aaaag

#1225
0aaaaa

#1230
1aaaaa
0aaaad

#1235
0aaaaa

#1240
1aaaaa
1aaaad
r-701.7630004882812 aaaaf
r1474.31640625 aaaag

#1245
0aaaaa

#1250
1aaaaa
1aaaac
0aaaad

#1255
0aaaaa

#1260
1aaaaa
0aaaae

