fft_bca/trace.vcd
$date
     Mar 17, 2021       16:59:57
$end

$version
 SystemC 2.3.3-Accellera --- Feb  9 2021 03:11:34
$end

$timescale
     1 ns
$end

$scope module SystemC $end
$var wire    1  aaaaa  clk       $end
$var wire    1  aaaab  src_2_fft_valid       $end
$var wire    1  aaaac  fft_2_src_req       $end
$var wire    1  aaaad  fft_2_sink_valid       $end
$var wire    1  aaaae  sink_2_fft_req       $end
$upscope $end
$enddefinitions  $end

$comment
All initial values are dumped below at time 0 sec = 0 timescale units.
$end

$dumpvars
0aaaaa
0aaaab
1aaaac
0aaaad
0aaaae
$end

#10
1aaaaa
1aaaab
1aaaae

#15
0aaaaa

#20
1aaaaa
0aaaab
0aaaac

#25
0aaaaa

#30
1aaaaa
1aaaab
1aaaac

#35
0aaaaa

#40
1aaaaa
0aaaab
0aaaac

#45
0aaaaa

#50
1aaaaa
1aaaab
1aaaac

#55
0aaaaa

#60
1aaaaa
0aaaab
0aaaac

#65
0aaaaa

#70
1aaaaa
1aaaab
1aaaac

#75
0aaaaa

#80
1aaaaa
0aaaab
0aaaac

#85
0aaaaa

#90
1aaaaa
1aaaab
1aaaac

#95
0aaaaa

#100
1aaaaa
0aaaab
0aaaac

#105
0aaaaa

#110
1aaaaa
1aaaab
1aaaac

#115
0aaaaa

#120
1aaaaa
0aaaab
0aaaac

#125
0aaaaa

#130
1aaaaa
1aaaab
1aaaac

#135
0aaaaa

#140
1aaaaa
0aaaab
0aaaac

#145
0aaaaa

#150
1aaaaa
1aaaab
1aaaac

#155
0aaaaa

#160
1aaaaa
0aaaab
0aaaac
1aaaad

#165
0aaaaa

#170
1aaaaa
1aaaab
0aaaad
0aaaae

#175
0aaaaa

#180
1aaaaa
1aaaad
1aaaae

#185
0aaaaa

#190
1aaaaa
0aaaad
0aaaae

#195
0aaaaa

#200
1aaaaa
1aaaad
1aaaae

#205
0aaaaa

#210
1aaaaa
0aaaad
0aaaae

#215
0aaaaa

#220
1aaaaa
1aaaad
1aaaae

#225
0aaaaa

#230
1aaaaa
0aaaad
0aaaae

#235
0aaaaa

#240
1aaaaa
1aaaad
1aaaae

#245
0aaaaa

#250
1aaaaa
0aaaad
0aaaae

#255
0aaaaa

#260
1aaaaa
1aaaad
1aaaae

#265
0aaaaa

#270
1aaaaa
0aaaad
0aaaae

#275
0aaaaa

#280
1aaaaa
1aaaad
1aaaae

#285
0aaaaa

#290
1aaaaa
0aaaad
0aaaae

#295
0aaaaa

#300
1aaaaa
1aaaad
1aaaae

#305
0aaaaa

#310
1aaaaa
0aaaad
0aaaae

#315
0aaaaa

#320
1aaaaa
1aaaad
1aaaae

#325
0aaaaa

#330
1aaaaa
0aaaad
0aaaae

#335
0aaaaa

#340
1aaaaa
1aaaad
1aaaae

#345
0aaaaa

#350
1aaaaa
0aaaad
0aaaae

#355
0aaaaa

#360
1aaaaa
1aaaad
1aaaae

#365
0aaaaa

#370
1aaaaa
0aaaad
0aaaae

#375
0aaaaa

#380
1aaaaa
1aaaad
1aaaae

#385
0aaaaa

#390
1aaaaa
0aaaad
0aaaae

#395
0aaaaa

#400
1aaaaa
1aaaad
1aaaae

#405
0aaaaa

#410
1aaaaa
0aaaad
0aaaae

#415
0aaaaa

#420
1aaaaa
1aaaad
1aaaae

#425
0aaaaa

#430
1aaaaa
0aaaad
0aaaae

#435
0aaaaa

#440
1aaaaa
1aaaad
1aaaae

#445
0aaaaa

#450
1aaaaa
1aaaac
0aaaad
0aaaae

#455
0aaaaa

#460
1aaaaa
0aaaab
0aaaac
1aaaae

#465
0aaaaa

#470
1aaaaa
1aaaab
1aaaac

#475
0aaaaa

#480
1aaaaa
0aaaab
0aaaac

#485
0aaaaa

#490
1aaaaa
1aaaab
1aaaac

#495
0aaaaa

#500
1aaaaa
0aaaab
0aaaac

#505
0aaaaa

#510
1aaaaa
1aaaab
1aaaac

#515
0aaaaa

#520
1aaaaa
0aaaab
0aaaac

#525
0aaaaa

#530
1aaaaa
1aaaab
1aaaac

#535
0aaaaa

#540
1aaaaa
0aaaab
0aaaac

#545
0aaaaa

#550
1aaaaa
1aaaab
1aaaac

#555
0aaaaa

#560
1aaaaa
0aaaab
0aaaac

#565
0aaaaa

#570
1aaaaa
1aaaab
1aaaac

#575
0aaaaa

#580
1aaaaa
0aaaab
0aaaac

#585
0aaaaa

#590
1aaaaa
1aaaab
1aaaac

#595
0aaaaa

#600
1aaaaa
0aaaab
0aaaac
1aaaad

#605
0aaaaa

#610
1aaaaa
1aaaab
0aaaad
0aaaae

#615
0aaaaa

#620
1aaaaa
1aaaad
1aaaae

#625
0aaaaa

#630
1aaaaa
0aaaad
0aaaae

#635
0aaaaa

#640
1aaaaa
1aaaad
1aaaae

#645
0aaaaa

#650
1aaaaa
0aaaad
0aaaae

#655
0aaaaa

#660
1aaaaa
1aaaad
1aaaae

#665
0aaaaa

#670
1aaaaa
0aaaad
0aaaae

#675
0aaaaa

#680
1aaaaa
1aaaad
1aaaae

#685
0aaaaa

#690
1aaaaa
0aaaad
0aaaae

#695
0aaaaa

#700
1aaaaa
1aaaad
1aaaae

#705
0aaaaa

#710
1aaaaa
0aaaad
0aaaae

#715
0aaaaa

#720
1aaaaa
1aaaad
1aaaae

#725
0aaaaa

#730
1aaaaa
0aaaad
0aaaae

#735
0aaaaa

#740
1aaaaa
1aaaad
1aaaae

#745
0aaaaa

#750
1aaaaa
0aaaad
0aaaae

#755
0aaaaa

#760
1aaaaa
1aaaad
1aaaae

#765
0aaaaa

#770
1aaaaa
0aaaad
0aaaae

#775
0aaaaa

#780
1aaaaa
1aaaad
1aaaae

#785
0aaaaa

#790
1aaaaa
0aaaad
0aaaae

#795
0aaaaa

#800
1aaaaa
1aaaad
1aaaae

#805
0aaaaa

#810
1aaaaa
0aaaad
0aaaae

#815
0aaaaa

#820
1aaaaa
1aaaad
1aaaae

#825
0aaaaa

#830
1aaaaa
0aaaad
0aaaae

#835
0aaaaa

#840
1aaaaa
1aaaad
1aaaae

#845
0aaaaa

#850
1aaaaa
0aaaad
0aaaae

#855
0aaaaa

#860
1aaaaa
1aaaad
1aaaae

#865
0aaaaa

#870
1aaaaa
0aaaad
0aaaae

#875
0aaaaa

#880
1aaaaa
1aaaad
1aaaae

#885
0aaaaa

#890
1aaaaa
1aaaac
0aaaad
0aaaae

#895
0aaaaa

#900
1aaaaa
0aaaab
0aaaac
1aaaae

#905
0aaaaa

#910
1aaaaa
1aaaab
1aaaac

#915
0aaaaa

#920
1aaaaa
0aaaab
0aaaac

#925
0aaaaa

#930
1aaaaa
1aaaab
1aaaac

#935
0aaaaa

#940
1aaaaa
0aaaab
0aaaac

#945
0aaaaa

#950
1aaaaa
1aaaab
1aaaac

#955
0aaaaa

#960
1aaaaa
0aaaab
0aaaac

#965
0aaaaa

#970
1aaaaa
1aaaab
1aaaac

#975
0aaaaa

#980
1aaaaa
0aaaab
0aaaac

#985
0aaaaa

#990
1aaaaa
1aaaab
1aaaac

#995
0aaaaa

#1000
1aaaaa
0aaaab
0aaaac

#1005
0aaaaa

#1010
1aaaaa
1aaaab
1aaaac

#1015
0aaaaa

#1020
1aaaaa
0aaaab
0aaaac

#1025
0aaaaa

#1030
1aaaaa
1aaaab
1aaaac

#1035
0aaaaa

#1040
1aaaaa
0aaaab
0aaaac
1aaaad

#1045
0aaaaa

#1050
1aaaaa
1aaaab
0aaaad
0aaaae

#1055
0aaaaa

#1060
1aaaaa
1aaaad
1aaaae

#1065
0aaaaa

#1070
1aaaaa
0aaaad
0aaaae

#1075
0aaaaa

#1080
1aaaaa
1aaaad

#1085
0aaaaa

#1090
1aaaaa
0aaaad

#1095
0aaaaa

#1100
1aaaaa
1aaaad

#1105
0aaaaa

#1110
1aaaaa
0aaaad

#1115
0aaaaa

#1120
1aaaaa
1aaaad

#1125
0aaaaa

#1130
1aaaaa
0aaaad

#1135
0aaaaa

#1140
1aaaaa
1aaaad

#1145
0aaaaa

#1150
1aaaaa
0aaaad

#1155
0aaaaa

#1160
1aaaaa
1aaaad

#1165
0aaaaa

#1170
1aaaaa
0aaaad

#1175
0aaaaa

#1180
1aaaaa
1aaaad

#1185
0aaaaa

#1190
1aaaaa
0aaaad

#1195
0aaaaa

#1200
1aaaaa
1aaaad

#1205
0aaaaa

#1210
1aaaaa
0aaaad

#1215
0aaaaa

#1220
1aaaaa
1aaaad

#1225
0aaaaa

#1230
1aaaaa
0aaaad

#1235
0aaaaa

#1240
1aaaaa
1aaaad

#1245
0aaaaa

#1250
1aaaaa
0aaaad

#1255
0aaaaa

#1260
1aaaaa
1aaaad

#1265
0aaaaa

#1270
1aaaaa
0aaaad

#1275
0aaaaa

#1280
1aaaaa
1aaaad

#1285
0aaaaa

#1290
1aaaaa
0aaaad

#1295
0aaaaa

#1300
1aaaaa
1aaaad

#1305
0aaaaa

#1310
1aaaaa
0aaaad

#1315
0aaaaa

#1320
1aaaaa
1aaaad

#1325
0aaaaa

#1330
1aaaaa
1aaaac
0aaaad

#1335
0aaaaa

#1340
1aaaaa
0aaaab
0aaaac

#1345
0aaaaa

#1350
1aaaaa
1aaaab
1aaaac

#1355
0aaaaa

#1360
1aaaaa
0aaaab
0aaaac

#1365
0aaaaa

#1370
1aaaaa
1aaaab
1aaaac

#1375
0aaaaa

#1380
1aaaaa
0aaaab
0aaaac

#1385
0aaaaa

#1390
1aaaaa
1aaaab
1aaaac

#1395
0aaaaa

#1400
1aaaaa
0aaaab
0aaaac

#1405
0aaaaa

#1410
1aaaaa
1aaaab
1aaaac

#1415
0aaaaa

#1420
1aaaaa
0aaaab
0aaaac

#1425
0aaaaa

#1430
1aaaaa
1aaaab
1aaaac

#1435
0aaaaa

#1440
1aaaaa
0aaaab
0aaaac

#1445
0aaaaa

#1450
1aaaaa
1aaaab
1aaaac

#1455
0aaaaa

#1460
1aaaaa
0aaaab
0aaaac

#1465
0aaaaa

#1470
1aaaaa
1aaaab
1aaaac

#1475
0aaaaa

#1480
1aaaaa
0aaaab
0aaaac
1aaaad

#1485
0aaaaa

#1490
1aaaaa
0aaaad

#1495
0aaaaa

#1500
1aaaaa
1aaaad

#1505
0aaaaa

#1510
1aaaaa
0aaaad

#1515
0aaaaa

#1520
1aaaaa
1aaaad

#1525
0aaaaa

#1530
1aaaaa
0aaaad

#1535
0aaaaa

#1540
1aaaaa
1aaaad

#1545
0aaaaa

#1550
1aaaaa
0aaaad

#1555
0aaaaa

#1560
1aaaaa
1aaaad

#1565
0aaaaa

#1570
1aaaaa
0aaaad

#1575
0aaaaa

#1580
1aaaaa
1aaaad

#1585
0aaaaa

#1590
1aaaaa
0aaaad

#1595
0aaaaa

#1600
1aaaaa
1aaaad

#1605
0aaaaa

#1610
1aaaaa
0aaaad

#1615
0aaaaa

#1620
1aaaaa
1aaaad

#1625
0aaaaa

#1630
1aaaaa
0aaaad

#1635
0aaaaa

#1640
1aaaaa
1aaaad

#1645
0aaaaa

#1650
1aaaaa
0aaaad

#1655
0aaaaa

#1660
1aaaaa
1aaaad

#1665
0aaaaa

#1670
1aaaaa
0aaaad

#1675
0aaaaa

#1680
1aaaaa
1aaaad

#1685
0aaaaa

#1690
1aaaaa
0aaaad

#1695
0aaaaa

#1700
1aaaaa
1aaaad

#1705
0aaaaa

#1710
1aaaaa
0aaaad

#1715
0aaaaa

#1720
1aaaaa
1aaaad

#1725
0aaaaa

#1730
1aaaaa
0aaaad

#1735
0aaaaa

#1740
1aaaaa
1aaaad

#1745
0aaaaa

#1750
1aaaaa
0aaaad

#1755
0aaaaa

#1760
1aaaaa
1aaaad

#1765
0aaaaa

#1770
1aaaaa
1aaaac
0aaaad

