fft_caba/trace.vcd
$date
     Mar 24, 2021       16:07:18
$end

$version
 SystemC 2.3.3-Accellera --- Feb  9 2021 03:11:34
$end

$timescale
     1 ns
$end

$scope module SystemC $end
$var wire    1  aaaaa  clk       $end
$var wire    1  aaaab  src_2_fft_valid       $end
$var wire    1  aaaac  fft_2_src_req       $end
$var wire    1  aaaad  fft_2_sink_valid       $end
$var wire    1  aaaae  sink_2_fft_req       $end
$var wire   27  aaaaf  out_imag [26:0]  $end
$var wire   27  aaaag  out_real [26:0]  $end
$var wire   23  aaaah  in_imag [22:0]  $end
$var wire   23  aaaai  in_real [22:0]  $end
$upscope $end
$enddefinitions  $end

$comment
All initial values are dumped below at time 0 sec = 0 timescale units.
$end

$dumpvars
0aaaaa
0aaaab
1aaaac
0aaaad
0aaaae
b0 aaaaf
b0 aaaag
b0 aaaah
b0 aaaai
$end

#10
1aaaaa
1aaaab
1aaaae
b11111011011 aaaah
b11111011011 aaaai

#15
0aaaaa

#20
1aaaaa
0aaaab

#25
0aaaaa

#30
1aaaaa
1aaaab

#35
0aaaaa

#40
1aaaaa
0aaaab

#45
0aaaaa

#50
1aaaaa
1aaaab

#55
0aaaaa

#60
1aaaaa
0aaaab

#65
0aaaaa

#70
1aaaaa
1aaaab

#75
0aaaaa

#80
1aaaaa
0aaaab

#85
0aaaaa

#90
1aaaaa
1aaaab

#95
0aaaaa

#100
1aaaaa
0aaaab

#105
0aaaaa

#110
1aaaaa
1aaaab

#115
0aaaaa

#120
1aaaaa
0aaaab

#125
0aaaaa

#130
1aaaaa
1aaaab

#135
0aaaaa

#140
1aaaaa
0aaaab

#145
0aaaaa

#150
1aaaaa
1aaaab

#155
0aaaaa

#160
1aaaaa
0aaaab

#165
0aaaaa

#170
1aaaaa
1aaaab
0aaaac
1aaaad
b11111011011000 aaaaf
b11111011011000 aaaag
b1 aaaah
b1 aaaai

#175
0aaaaa

#180
1aaaaa
0aaaad

#185
0aaaaa

#190
1aaaaa
1aaaad
b0 aaaaf
b0 aaaag

#195
0aaaaa

#200
1aaaaa
0aaaad

#205
0aaaaa

#210
1aaaaa
1aaaad

#215
0aaaaa

#220
1aaaaa
0aaaad

#225
0aaaaa

#230
1aaaaa
1aaaad

#235
0aaaaa

#240
1aaaaa
0aaaad

#245
0aaaaa

#250
1aaaaa
1aaaad

#255
0aaaaa

#260
1aaaaa
0aaaad

#265
0aaaaa

#270
1aaaaa
1aaaad

#275
0aaaaa

#280
1aaaaa
0aaaad

#285
0aaaaa

#290
1aaaaa
1aaaad

#295
0aaaaa

#300
1aaaaa
0aaaad

#305
0aaaaa

#310
1aaaaa
1aaaad

#315
0aaaaa

#320
1aaaaa
1aaaac
0aaaad

#325
0aaaaa

#330
1aaaaa
0aaaab

#335
0aaaaa

#340
1aaaaa
1aaaab
b0 aaaah
b0 aaaai

#345
0aaaaa

#350
1aaaaa
0aaaab

#355
0aaaaa

#360
1aaaaa
1aaaab

#365
0aaaaa

#370
1aaaaa
0aaaab

#375
0aaaaa

#380
1aaaaa
1aaaab

#385
0aaaaa

#390
1aaaaa
0aaaab

#395
0aaaaa

#400
1aaaaa
1aaaab

#405
0aaaaa

#410
1aaaaa
0aaaab

#415
0aaaaa

#420
1aaaaa
1aaaab

#425
0aaaaa

#430
1aaaaa
0aaaab

#435
0aaaaa

#440
1aaaaa
1aaaab

#445
0aaaaa

#450
1aaaaa
0aaaab

#455
0aaaaa

#460
1aaaaa
1aaaab

#465
0aaaaa

#470
1aaaaa
0aaaab

#475
0aaaaa

#480
1aaaaa
1aaaab
0aaaac
1aaaad
b1 aaaaf
b1 aaaag
b111001000 aaaah

#485
0aaaaa

#490
1aaaaa
0aaaad

#495
0aaaaa

#500
1aaaaa
1aaaad

#505
0aaaaa

#510
1aaaaa
0aaaad

#515
0aaaaa

#520
1aaaaa
1aaaad

#525
0aaaaa

#530
1aaaaa
0aaaad

#535
0aaaaa

#540
1aaaaa
1aaaad

#545
0aaaaa

#550
1aaaaa
0aaaad

#555
0aaaaa

#560
1aaaaa
1aaaad

#565
0aaaaa

#570
1aaaaa
0aaaad

#575
0aaaaa

#580
1aaaaa
1aaaad

#585
0aaaaa

#590
1aaaaa
0aaaad

#595
0aaaaa

#600
1aaaaa
1aaaad

#605
0aaaaa

#610
1aaaaa
0aaaad

#615
0aaaaa

#620
1aaaaa
1aaaad

#625
0aaaaa

#630
1aaaaa
1aaaac
0aaaad

#635
0aaaaa

#640
1aaaaa
0aaaab

#645
0aaaaa

#650
1aaaaa
1aaaab
b11101010 aaaah
b1111000 aaaai

#655
0aaaaa

#660
1aaaaa
0aaaab

#665
0aaaaa

#670
1aaaaa
1aaaab
b1111000 aaaah
b11101010 aaaai

#675
0aaaaa

#680
1aaaaa
0aaaab

#685
0aaaaa

#690
1aaaaa
1aaaab
b0 aaaah
b1111000 aaaai

#695
0aaaaa

#700
1aaaaa
0aaaab

#705
0aaaaa

#710
1aaaaa
1aaaab
b11111111111111110001000 aaaah
b0 aaaai

#715
0aaaaa

#720
1aaaaa
0aaaab

#725
0aaaaa

#730
1aaaaa
1aaaab
b11111111111111100010110 aaaah
b11111111111111110001000 aaaai

#735
0aaaaa

#740
1aaaaa
0aaaab

#745
0aaaaa

#750
1aaaaa
1aaaab
b11111111111111000111000 aaaah
b11111111111111100010110 aaaai

#755
0aaaaa

#760
1aaaaa
0aaaab

#765
0aaaaa

#770
1aaaaa
1aaaab
b11111111111110100000000 aaaah
b11111111111111110001000 aaaai

#775
0aaaaa

#780
1aaaaa
0aaaab

#785
0aaaaa

#790
1aaaaa
1aaaab
0aaaac
1aaaad
b111111111111111110100000000 aaaaf
b0 aaaag
b11101 aaaah
b1111011 aaaai

#795
0aaaaa

#800
1aaaaa
0aaaad

#805
0aaaaa

#810
1aaaaa
1aaaad
b111111111111111111001000100 aaaaf
b10110101010 aaaag

#815
0aaaaa

#820
1aaaaa
0aaaad

#825
0aaaaa

#830
1aaaaa
1aaaad
b1010100000 aaaaf
b1100000000 aaaag

#835
0aaaaa

#840
1aaaaa
0aaaad

#845
0aaaaa

#850
1aaaaa
1aaaad
b1110010100 aaaaf
b100101010 aaaag

#855
0aaaaa

#860
1aaaaa
0aaaad

#865
0aaaaa

#870
1aaaaa
1aaaad
b1100000000 aaaaf
b0 aaaag

#875
0aaaaa

#880
1aaaaa
0aaaad

#885
0aaaaa

#890
1aaaaa
1aaaad
b1010010100 aaaaf
b111111111111111111011010110 aaaag

#895
0aaaaa

#900
1aaaaa
0aaaad

#905
0aaaaa

#910
1aaaaa
1aaaad
b1010100000 aaaaf
b111111111111111110100000000 aaaag

#915
0aaaaa

#920
1aaaaa
0aaaad

#925
0aaaaa

#930
1aaaaa
1aaaad
b10010010100 aaaaf
b111111111111111101001010110 aaaag

#935
0aaaaa

#940
1aaaaa
1aaaac
0aaaad

#945
0aaaaa

#950
1aaaaa
0aaaab

#955
0aaaaa

#960
1aaaaa
1aaaab
b100010 aaaah
b100010 aaaai

#965
0aaaaa

#970
1aaaaa
0aaaab

#975
0aaaaa

#980
1aaaaa
1aaaab
b1010101 aaaah
b11111111111111111101001 aaaai

#985
0aaaaa

#990
1aaaaa
0aaaab

#995
0aaaaa

#1000
1aaaaa
1aaaab
b11001110 aaaah
b1100 aaaai

#1005
0aaaaa

#1010
1aaaaa
0aaaab

#1015
0aaaaa

#1020
1aaaaa
1aaaab
b101010000 aaaah
b101101 aaaai

#1025
0aaaaa

#1030
1aaaaa
0aaaab

#1035
0aaaaa

#1040
1aaaaa
1aaaab
b1001010001 aaaah
b0 aaaai

#1045
0aaaaa

#1050
1aaaaa
0aaaab

#1055
0aaaaa

#1060
1aaaaa
1aaaab
b1100110111 aaaah
b1000011 aaaai

#1065
0aaaaa

#1070
1aaaaa
0aaaab

#1075
0aaaaa

#1080
1aaaaa
1aaaab
b110100110 aaaah
b10000110 aaaai

#1085
0aaaaa

#1090
1aaaaa
0aaaab

#1095
0aaaaa

#1100
1aaaaa
0aaaac
1aaaad
b100111100000 aaaaf
b110001000 aaaag

#1105
0aaaaa

#1110
1aaaaa
0aaaad

#1115
0aaaaa

#1120
1aaaaa
1aaaad
b111111111111111111001110011 aaaaf
b111111111111111101110110110 aaaag

#1125
0aaaaa

#1130
1aaaaa
0aaaad

#1135
0aaaaa

#1140
1aaaaa
1aaaad
b111111111111111111001010001 aaaaf
b1111011 aaaag

#1145
0aaaaa

#1150
1aaaaa
0aaaad

#1155
0aaaaa

#1160
1aaaaa
1aaaad
b111111111111111111110100100 aaaaf
b10011101 aaaag

#1165
0aaaaa

#1170
1aaaaa
0aaaad

#1175
0aaaaa

#1180
1aaaaa
1aaaad
b10010 aaaaf
b100000 aaaag

#1185
0aaaaa

#1190
1aaaaa
0aaaad

#1195
0aaaaa

#1200
1aaaaa
1aaaad
b111111111111111111111011011 aaaaf
b111111111111111111100100010 aaaag

#1205
0aaaaa

#1210
1aaaaa
0aaaad

#1215
0aaaaa

#1220
1aaaaa
1aaaad
b111111111111111110101110001 aaaaf
b1111101 aaaag

#1225
0aaaaa

#1230
1aaaaa
0aaaad

#1235
0aaaaa

#1240
1aaaaa
1aaaad
b111111111111111110101000010 aaaaf
b10111000011 aaaag

#1245
0aaaaa

#1250
1aaaaa
1aaaac
0aaaad

#1255
0aaaaa

#1260
1aaaaa
0aaaae

